…
5.  The number of completed clutches and uncompleted clutches were
    examined for each species. This was done by creating a stacked bar
    graph.

6.  Body masses of each species were individually analyzed by the
    frequency of their occurrence.

## Results

The results show that all three penguin species have a distribution that
follows a normal curve. If we look at the clutch completion of each
species, we see that the Gentoo penguin also has the highest proportion
of incomplete clutches compared to the other two penguin species.

    ## # A tibble: 344 x 8
    ##    species island bill_length_mm bill_depth_mm flipper_length_… body_mass_g
    ##    <fct>   <fct>           <dbl>         <dbl>            <int>       <int>
    ##  1 Adelie  Torge…           39.1          18.7              181        3750
    ##  2 Adelie  Torge…           39.5          17.4              186        3800
    ##  3 Adelie  Torge…           40.3          18                195        3250
    ##  4 Adelie  Torge…           NA            NA                 NA          NA
    ##  5 Adelie  Torge…           36.7          19.3              193        3450
    ##  6 Adelie  Torge…           39.3          20.6              190        3650
    ##  7 Adelie  Torge…           38.9          17.8              181        3625
    ##  8 Adelie  Torge…           39.2          19.6              195        4675
    ##  9 Adelie  Torge…           34.1          18.1              193        3475
    ## 10 Adelie  Torge…           42            20.2              190        4250
    ## # … with 334 more rows, and 2 more variables: sex <fct>, year <int>

    ## # A tibble: 344 x 17
    ##    studyName `Sample Number` Species Region Island Stage `Individual ID`
    ##    <chr>               <dbl> <chr>   <chr>  <chr>  <chr> <chr>          
    ##  1 PAL0708                 1 Adelie… Anvers Torge… Adul… N1A1           
    ##  2 PAL0708                 2 Adelie… Anvers Torge… Adul… N1A2           
    ##  3 PAL0708                 3 Adelie… Anvers Torge… Adul… N2A1           
    ##  4 PAL0708                 4 Adelie… Anvers Torge… Adul… N2A2           
    ##  5 PAL0708                 5 Adelie… Anvers Torge… Adul… N3A1           
    ##  6 PAL0708                 6 Adelie… Anvers Torge… Adul… N3A2           
    ##  7 PAL0708                 7 Adelie… Anvers Torge… Adul… N4A1           
    ##  8 PAL0708                 8 Adelie… Anvers Torge… Adul… N4A2           
    ##  9 PAL0708                 9 Adelie… Anvers Torge… Adul… N5A1           
    ## 10 PAL0708                10 Adelie… Anvers Torge… Adul… N5A2           
    ## # … with 334 more rows, and 10 more variables: `Clutch Completion` <chr>, `Date
    ## #   Egg` <date>, `Culmen Length (mm)` <dbl>, `Culmen Depth (mm)` <dbl>,
    ## #   `Flipper Length (mm)` <dbl>, `Body Mass (g)` <dbl>, Sex <chr>, `Delta 15 N
    ## #   (o/oo)` <dbl>, `Delta 13 C (o/oo)` <dbl>, Comments <chr>

    ## # A tibble: 344 x 17
    ##    studyName `Sample Number` Species Region Island Stage `Individual ID`
    ##    <chr>               <dbl> <chr>   <chr>  <chr>  <chr> <chr>          
    ##  1 PAL0708                 1 Adelie… Anvers Torge… Adul… N1A1           
    ##  2 PAL0708                 2 Adelie… Anvers Torge… Adul… N1A2           
    ##  3 PAL0708                 3 Adelie… Anvers Torge… Adul… N2A1           
    ##  4 PAL0708                 4 Adelie… Anvers Torge… Adul… N2A2           
    ##  5 PAL0708                 5 Adelie… Anvers Torge… Adul… N3A1           
    ##  6 PAL0708                 6 Adelie… Anvers Torge… Adul… N3A2           
    ##  7 PAL0708                 7 Adelie… Anvers Torge… Adul… N4A1           
    ##  8 PAL0708                 8 Adelie… Anvers Torge… Adul… N4A2           
    ##  9 PAL0708                 9 Adelie… Anvers Torge… Adul… N5A1           
    ## 10 PAL0708                10 Adelie… Anvers Torge… Adul… N5A2           
    ## # … with 334 more rows, and 10 more variables: `Clutch Completion` <chr>, `Date
    ## #   Egg` <date>, `Culmen Length (mm)` <dbl>, `Culmen Depth (mm)` <dbl>,
    ## #   `Flipper Length (mm)` <dbl>, `Body Mass (g)` <dbl>, Sex <chr>, `Delta 15 N
    ## #   (o/oo)` <dbl>, `Delta 13 C (o/oo)` <dbl>, Comments <chr>

    ##  [1] "studyName"           "Sample Number"       "Species"            
    ##  [4] "Region"              "Island"              "Stage"              
    ##  [7] "Individual ID"       "Clutch Completion"   "Date Egg"           
    ## [10] "Culmen Length (mm)"  "Culmen Depth (mm)"   "Flipper Length (mm)"
    ## [13] "Body Mass (g)"       "Sex"                 "Delta 15 N (o/oo)"  
    ## [16] "Delta 13 C (o/oo)"   "Comments"

    ## # A tibble: 344 x 17
    ##    studyName `Sample Number` species Region Island Stage `Individual ID`
    ##    <chr>               <dbl> <chr>   <chr>  <chr>  <chr> <chr>          
    ##  1 PAL0708                 1 Adelie… Anvers Torge… Adul… N1A1           
    ##  2 PAL0708                 2 Adelie… Anvers Torge… Adul… N1A2           
    ##  3 PAL0708                 3 Adelie… Anvers Torge… Adul… N2A1           
    ##  4 PAL0708                 4 Adelie… Anvers Torge… Adul… N2A2           
    ##  5 PAL0708                 5 Adelie… Anvers Torge… Adul… N3A1           
    ##  6 PAL0708                 6 Adelie… Anvers Torge… Adul… N3A2           
    ##  7 PAL0708                 7 Adelie… Anvers Torge… Adul… N4A1           
    ##  8 PAL0708                 8 Adelie… Anvers Torge… Adul… N4A2           
    ##  9 PAL0708                 9 Adelie… Anvers Torge… Adul… N5A1           
    ## 10 PAL0708                10 Adelie… Anvers Torge… Adul… N5A2           
    ## # … with 334 more rows, and 10 more variables: clutch_completion <chr>, `Date
    ## #   Egg` <date>, `Culmen Length (mm)` <dbl>, `Culmen Depth (mm)` <dbl>,
    ## #   `Flipper Length (mm)` <dbl>, body_mass <dbl>, Sex <chr>, `Delta 15 N
    ## #   (o/oo)` <dbl>, `Delta 13 C (o/oo)` <dbl>, Comments <chr>

    ## # A tibble: 152 x 17
    ##    studyName `Sample Number` species Region Island Stage `Individual ID`
    ##    <chr>               <dbl> <chr>   <chr>  <chr>  <chr> <chr>          
    ##  1 PAL0708                 1 Adelie… Anvers Torge… Adul… N1A1           
    ##  2 PAL0708                 2 Adelie… Anvers Torge… Adul… N1A2           
    ##  3 PAL0708                 3 Adelie… Anvers Torge… Adul… N2A1           
    ##  4 PAL0708                 4 Adelie… Anvers Torge… Adul… N2A2           
    ##  5 PAL0708                 5 Adelie… Anvers Torge… Adul… N3A1           
    ##  6 PAL0708                 6 Adelie… Anvers Torge… Adul… N3A2           
    ##  7 PAL0708                 7 Adelie… Anvers Torge… Adul… N4A1           
    ##  8 PAL0708                 8 Adelie… Anvers Torge… Adul… N4A2           
    ##  9 PAL0708                 9 Adelie… Anvers Torge… Adul… N5A1           
    ## 10 PAL0708                10 Adelie… Anvers Torge… Adul… N5A2           
    ## # … with 142 more rows, and 10 more variables: clutch_completion <chr>, `Date
    ## #   Egg` <date>, `Culmen Length (mm)` <dbl>, `Culmen Depth (mm)` <dbl>,
    ## #   `Flipper Length (mm)` <dbl>, body_mass <dbl>, Sex <chr>, `Delta 15 N
    ## #   (o/oo)` <dbl>, `Delta 13 C (o/oo)` <dbl>, Comments <chr>

    ## # A tibble: 68 x 17
    ##    studyName `Sample Number` species Region Island Stage `Individual ID`
    ##    <chr>               <dbl> <chr>   <chr>  <chr>  <chr> <chr>          
    ##  1 PAL0708                 1 Chinst… Anvers Dream  Adul… N61A1          
    ##  2 PAL0708                 2 Chinst… Anvers Dream  Adul… N61A2          
    ##  3 PAL0708                 3 Chinst… Anvers Dream  Adul… N62A1          
    ##  4 PAL0708                 4 Chinst… Anvers Dream  Adul… N62A2          
    ##  5 PAL0708                 5 Chinst… Anvers Dream  Adul… N64A1          
    ##  6 PAL0708                 6 Chinst… Anvers Dream  Adul… N64A2          
    ##  7 PAL0708                 7 Chinst… Anvers Dream  Adul… N66A1          
    ##  8 PAL0708                 8 Chinst… Anvers Dream  Adul… N66A2          
    ##  9 PAL0708                 9 Chinst… Anvers Dream  Adul… N67A1          
    ## 10 PAL0708                10 Chinst… Anvers Dream  Adul… N67A2          
    ## # … with 58 more rows, and 10 more variables: clutch_completion <chr>, `Date
    ## #   Egg` <date>, `Culmen Length (mm)` <dbl>, `Culmen Depth (mm)` <dbl>,
    ## #   `Flipper Length (mm)` <dbl>, body_mass <dbl>, Sex <chr>, `Delta 15 N
    ## #   (o/oo)` <dbl>, `Delta 13 C (o/oo)` <dbl>, Comments <chr>

    ## # A tibble: 124 x 17
    ##    studyName `Sample Number` species Region Island Stage `Individual ID`
    ##    <chr>               <dbl> <chr>   <chr>  <chr>  <chr> <chr>          
    ##  1 PAL0708                 1 Gentoo… Anvers Biscoe Adul… N31A1          
    ##  2 PAL0708                 2 Gentoo… Anvers Biscoe Adul… N31A2          
    ##  3 PAL0708                 3 Gentoo… Anvers Biscoe Adul… N32A1          
    ##  4 PAL0708                 4 Gentoo… Anvers Biscoe Adul… N32A2          
    ##  5 PAL0708                 5 Gentoo… Anvers Biscoe Adul… N33A1          
    ##  6 PAL0708                 6 Gentoo… Anvers Biscoe Adul… N33A2          
    ##  7 PAL0708                 7 Gentoo… Anvers Biscoe Adul… N34A1          
    ##  8 PAL0708                 8 Gentoo… Anvers Biscoe Adul… N34A2          
    ##  9 PAL0708                 9 Gentoo… Anvers Biscoe Adul… N35A1          
    ## 10 PAL0708                10 Gentoo… Anvers Biscoe Adul… N35A2          
    ## # … with 114 more rows, and 10 more variables: clutch_completion <chr>, `Date
    ## #   Egg` <date>, `Culmen Length (mm)` <dbl>, `Culmen Depth (mm)` <dbl>,
    ## #   `Flipper Length (mm)` <dbl>, body_mass <dbl>, Sex <chr>, `Delta 15 N
    ## #   (o/oo)` <dbl>, `Delta 13 C (o/oo)` <dbl>, Comments <chr>
…
